1	医療政策
2	介護支援
3	年金政策
4	生活保護対策
5	中小企業政策
6	景気対策
7	道路網整備
8	鉄道整備
9	上下水道整備
10	港湾整備
11	ダム・河川整備
12	通信施設整備
13	公共施設マネジメント
14	緑化・公園整備
15	少子化対策
16	子育て支援
17	教育政策
18	農業政策
19	林業政策
20	漁業政策
21	財政再建
22	企業誘致
23	雇用創出
24	失業対策
25	環境保全・保護
26	再生可能エネルギー導入
27	省エネルギー政策
28	ごみ減量推進
29	原発対策
30	行政改革
31	議会改革
32	情報公開・広報広聴
33	防災対策
34	震災復興
35	食の安全
36	防犯対策
37	景観保護
38	地域コミュニティづくり
39	中心市街地活性化
40	芸術・文化振興
41	観光振興
42	スポーツ振興
43	人権擁護・保護
44	住宅政策
45	市民参画・協働
46	若者の政治参加
47	女性政策
48	憲法
49	外交・安全保障
50	地方分権
51	その他